module gitlab.com/mikeeddington/gitlab-standup-buddy

go 1.19

require (
	github.com/fatih/color v1.14.1 // indirect
	github.com/goccy/go-yaml v1.11.0 // indirect
	github.com/golang/protobuf v1.5.3 // indirect
	github.com/google/go-querystring v1.1.0 // indirect
	github.com/gookit/color v1.5.3 // indirect
	github.com/gookit/config/v2 v2.2.3 // indirect
	github.com/gookit/goutil v0.6.10 // indirect
	github.com/hashicorp/go-cleanhttp v0.5.2 // indirect
	github.com/hashicorp/go-retryablehttp v0.7.2 // indirect
	github.com/imdario/mergo v0.3.15 // indirect
	github.com/inconshreveable/mousetrap v1.1.0 // indirect
	github.com/mattn/go-colorable v0.1.13 // indirect
	github.com/mattn/go-isatty v0.0.17 // indirect
	github.com/mitchellh/mapstructure v1.5.0 // indirect
	github.com/rs/zerolog v1.30.0 // indirect
	github.com/spf13/cobra v1.7.0 // indirect
	github.com/spf13/pflag v1.0.5 // indirect
	github.com/xanzy/go-gitlab v0.91.1 // indirect
	github.com/xo/terminfo v0.0.0-20220910002029-abceb7e1c41e // indirect
	golang.org/x/net v0.8.0 // indirect
	golang.org/x/oauth2 v0.6.0 // indirect
	golang.org/x/sync v0.3.0 // indirect
	golang.org/x/sys v0.9.0 // indirect
	golang.org/x/term v0.9.0 // indirect
	golang.org/x/text v0.10.0 // indirect
	golang.org/x/time v0.3.0 // indirect
	golang.org/x/xerrors v0.0.0-20220907171357-04be3eba64a2 // indirect
	google.golang.org/appengine v1.6.7 // indirect
	google.golang.org/protobuf v1.29.1 // indirect
)
